Project 1
…
matches1 <- untidy_matches %>% pivot_longer(cols = -(date:adj_score2), 
    names_to = "spi1")
matches2 <- na.omit(matches1)
names(matches2)[18] <- "spi2"

fb_ref1 <- untidy_fbref %>% pivot_longer(cols = -(date:referee), 
    names_to = "attendance")
fb_ref2 <- na.omit(fb_ref1)
names(fb_ref2)[8] <- "game"
fb_ref2[1] <- NULL
fb_ref2[2:3] <- list(NULL)
fb_ref2 %>% select("game", everything())

## # A tibble: 52 x 5
##    game                 time  venue                referee            attendance
##    <fct>                <fct> <fct>                <fct>              <chr>     
##  1 france-south_korea   21:00 Parc des Princes     Claudia Umpierrez  45261     
##  2 germany-china        15:00 Roazhon Park         Marie-Soleil Beau… 15283     
##  3 spain-south_africa   18:00 Stade Oceane         Maria Carvajal     12044     
##  4 norway-nigeria       21:00 Stade Auguste-Delau… Kate Jacewicz      11058     
##  5 australia-italy      13:00 Stade du Hainaut     Melissa Borjas     15380     
##  6 brazil-jamaica       15:30 Stade des Alpes      Riem Hussein       17668     
##  7 england-scotland     18:00 Stade de Nice        Jana Adamkova      13188     
##  8 argentina-japan      18:00 Parc des Princes     Stephanie Frappart 25055     
##  9 canada-cameroon      21:00 Stade de la Mosson   Ri Hyang Ok        10710     
## 10 new_zealand-netherl… 15:00 Stade Oceane         Edina Alves Batis… 10654     
## # … with 42 more rows
…
Summary Statistics

# Finding Mean Projected Score by Country
joined %>% group_by(country) %>% summarize_at(vars(projscore), 
    list(spi.mean = mean)) %>% arrange(desc(spi.mean))

## # A tibble: 24 x 2
##    country     spi.mean
##    <chr>          <dbl>
##  1 usa             2.41
##  2 australia       2.39
##  3 japan           2.12
##  4 germany         1.76
##  5 france          1.76
##  6 england         1.75
##  7 brazil          1.74
##  8 netherlands     1.56
##  9 canada          1.4 
## 10 italy           1.24
## # … with 14 more rows

I first wanted to see the mean soccer power index for each country in the tournament and arrange them from highest to lowest SPI.

# Mean, SD, Min, Max with no grouping
joined %>% select(-game, -country) %>% summarize_if(is.numeric, 
    c(mean = mean, sd = sd, min = min, max = max, median = median)) %>% 
    pivot_longer(1:30, names_to = "Var", values_to = "Value") %>% 
    separate(Var, into = c("Var", "Stat"))

## # A tibble: 30 x 3
##    Var        Stat      Value
##    <chr>      <chr>     <dbl>
##  1 prob       mean      0.437
##  2 projscore  mean      1.34 
##  3 score      mean      1.40 
##  4 spi        mean     80.8  
##  5 attendance mean  21884.   
##  6 spread     mean      1.88 
##  7 prob       sd        0.278
##  8 projscore  sd        0.819
##  9 score      sd        1.67 
## 10 spi        sd       16.7  
## # … with 20 more rows
…
distinct1 %>% top_n(-1, spi) %>% select(country, spi)

## # A tibble: 1 x 2
##   country     spi
##   <chr>     <dbl>
## 1 argentina  37.1

Here I was able to see that France had the max SPI of 96.79 and Argentina had the min SPI of 37.09.

# Group by Country and Game
joined %>% group_by(game, country) %>% summarize(med.spi = median(spi))

## # A tibble: 104 x 3
## # Groups:   game [52]
##    game                 country     med.spi
##    <chr>                <chr>         <dbl>
##  1 argentina-japan      argentina      37.1
##  2 argentina-japan      japan          92.3
##  3 australia-brazil     australia      92.4
##  4 australia-brazil     brazil         89.7
##  5 australia-italy      australia      93.1
##  6 australia-italy      italy          71.1
##  7 brazil-jamaica       brazil         89.1
##  8 brazil-jamaica       jamaica        59.8
##  9 cameroon-new_zealand cameroon       65.8
## 10 cameroon-new_zealand new_zealand    77.6
## # … with 94 more rows
…
